module gitlab.ozon.dev/nastyayarotskas/telegram-bot

go 1.19

require (
	github.com/enescakir/emoji v1.0.0
	github.com/go-resty/resty/v2 v2.6.0
	github.com/go-telegram-bot-api/telegram-bot-api/v5 v5.5.1
	github.com/golang/mock v1.6.0
	github.com/lib/pq v1.10.7
	github.com/opentracing/opentracing-go v1.2.0
	github.com/pkg/errors v0.9.1
	github.com/prometheus/client_golang v1.13.0
	github.com/shopspring/decimal v1.3.1
	github.com/stretchr/testify v1.8.0
	github.com/uber/jaeger-client-go v2.30.0+incompatible
	go.uber.org/zap v1.23.0
	gopkg.in/yaml.v3 v3.0.1
)

require (
	github.com/HdrHistogram/hdrhistogram-go v1.1.2 // indirect
	github.com/beorn7/perks v1.0.1 // indirect
	github.com/cespare/xxhash/v2 v2.1.2 // indirect
	github.com/davecgh/go-spew v1.1.1 // indirect
	github.com/golang/protobuf v1.5.2 // indirect
	github.com/matttproud/golang_protobuf_extensions v1.0.1 // indirect
	github.com/niemeyer/pretty v0.0.0-20200227124842-a10e7caefd8e // indirect
	github.com/pmezard/go-difflib v1.0.0 // indirect
	github.com/prometheus/client_model v0.2.0 // indirect
	github.com/prometheus/common v0.37.0 // indirect
	github.com/prometheus/procfs v0.8.0 // indirect
	github.com/uber/jaeger-lib v2.4.1+incompatible // indirect
	go.uber.org/atomic v1.7.0 // indirect
	go.uber.org/multierr v1.6.0 // indirect
	golang.org/x/net v0.0.0-20220225172249-27dd8689420f // indirect
	golang.org/x/sys v0.0.0-20220520151302-bc2c85ada10a // indirect
	google.golang.org/protobuf v1.28.1 // indirect
	gopkg.in/check.v1 v1.0.0-20200227125254-8fa46927fb4f // indirect
)
